^C:\USERS\CALUM\DOCUMENTS\VISUAL STUDIO 2015\PROJECTS\DX11\DXUT\CORE\DXUT.CPP
/c /ZI /nologo /W4 /WX- /Od /Oi /Oy- /D WIN32 /D _DEBUG /D DEBUG /D PROFILE /D _WINDOWS /D _LIB /D USE_DIRECT3D11_2 /D _WIN32_WINNT=0x0600 /D _CRT_STDIO_ARBITRARY_WIDE_SPECIFIERS /D _UNICODE /D UNICODE /Gm- /EHsc /RTC1 /MDd /GS /arch:SSE2 /fp:fast /Zc:wchar_t /Zc:forScope /Zc:inline /openmp- /Yc"DXUT.h" /Fp"BIN\DESKTOP_2015\WIN32\DEBUG\DXUT.PCH" /Fo"BIN\DESKTOP_2015\WIN32\DEBUG\\" /Fd"BIN\DESKTOP_2015\WIN32\DEBUG\DXUT.PDB" /Gd /TP /analyze-   C:\USERS\CALUM\DOCUMENTS\VISUAL STUDIO 2015\PROJECTS\DX11\DXUT\CORE\DXUT.CPP
^C:\USERS\CALUM\DOCUMENTS\VISUAL STUDIO 2015\PROJECTS\DX11\DXUT\CORE\DXUTDEVICE11.CPP
/c /ZI /nologo /W4 /WX- /Od /Oi /Oy- /D WIN32 /D _DEBUG /D DEBUG /D PROFILE /D _WINDOWS /D _LIB /D USE_DIRECT3D11_2 /D _WIN32_WINNT=0x0600 /D _CRT_STDIO_ARBITRARY_WIDE_SPECIFIERS /D _UNICODE /D UNICODE /Gm- /EHsc /RTC1 /MDd /GS /arch:SSE2 /fp:fast /Zc:wchar_t /Zc:forScope /Zc:inline /openmp- /Yu"DXUT.h" /Fp"BIN\DESKTOP_2015\WIN32\DEBUG\DXUT.PCH" /Fo"BIN\DESKTOP_2015\WIN32\DEBUG\\" /Fd"BIN\DESKTOP_2015\WIN32\DEBUG\DXUT.PDB" /Gd /TP /analyze-   C:\USERS\CALUM\DOCUMENTS\VISUAL STUDIO 2015\PROJECTS\DX11\DXUT\CORE\DXUTDEVICE11.CPP
^C:\USERS\CALUM\DOCUMENTS\VISUAL STUDIO 2015\PROJECTS\DX11\DXUT\CORE\DXUTMISC.CPP
/c /ZI /nologo /W4 /WX- /Od /Oi /Oy- /D WIN32 /D _DEBUG /D DEBUG /D PROFILE /D _WINDOWS /D _LIB /D USE_DIRECT3D11_2 /D _WIN32_WINNT=0x0600 /D _CRT_STDIO_ARBITRARY_WIDE_SPECIFIERS /D _UNICODE /D UNICODE /Gm- /EHsc /RTC1 /MDd /GS /arch:SSE2 /fp:fast /Zc:wchar_t /Zc:forScope /Zc:inline /openmp- /Yu"DXUT.h" /Fp"BIN\DESKTOP_2015\WIN32\DEBUG\DXUT.PCH" /Fo"BIN\DESKTOP_2015\WIN32\DEBUG\\" /Fd"BIN\DESKTOP_2015\WIN32\DEBUG\DXUT.PDB" /Gd /TP /analyze-   C:\USERS\CALUM\DOCUMENTS\VISUAL STUDIO 2015\PROJECTS\DX11\DXUT\CORE\DXUTMISC.CPP
^C:\USERS\CALUM\DOCUMENTS\VISUAL STUDIO 2015\PROJECTS\DX11\DXUT\CORE\DXERR.CPP
/c /ZI /nologo /W4 /WX- /Od /Oi /Oy- /D WIN32 /D _DEBUG /D DEBUG /D PROFILE /D _WINDOWS /D _LIB /D USE_DIRECT3D11_2 /D _WIN32_WINNT=0x0600 /D _CRT_STDIO_ARBITRARY_WIDE_SPECIFIERS /D _UNICODE /D UNICODE /Gm- /EHsc /RTC1 /MDd /GS /arch:SSE2 /fp:fast /Zc:wchar_t /Zc:forScope /Zc:inline /openmp- /Yu"DXUT.h" /Fp"BIN\DESKTOP_2015\WIN32\DEBUG\DXUT.PCH" /Fo"BIN\DESKTOP_2015\WIN32\DEBUG\\" /Fd"BIN\DESKTOP_2015\WIN32\DEBUG\DXUT.PDB" /Gd /TP /analyze-   C:\USERS\CALUM\DOCUMENTS\VISUAL STUDIO 2015\PROJECTS\DX11\DXUT\CORE\DXERR.CPP
^C:\USERS\CALUM\DOCUMENTS\VISUAL STUDIO 2015\PROJECTS\DX11\DXUT\CORE\DDSTEXTURELOADER.CPP
/c /ZI /nologo /W4 /WX- /Od /Oi /Oy- /D WIN32 /D _DEBUG /D DEBUG /D PROFILE /D _WINDOWS /D _LIB /D USE_DIRECT3D11_2 /D _WIN32_WINNT=0x0600 /D _CRT_STDIO_ARBITRARY_WIDE_SPECIFIERS /D _UNICODE /D UNICODE /Gm- /EHsc /RTC1 /MDd /GS /arch:SSE2 /fp:fast /Zc:wchar_t /Zc:forScope /Zc:inline /openmp- /Yu"DXUT.h" /Fp"BIN\DESKTOP_2015\WIN32\DEBUG\DXUT.PCH" /Fo"BIN\DESKTOP_2015\WIN32\DEBUG\\" /Fd"BIN\DESKTOP_2015\WIN32\DEBUG\DXUT.PDB" /Gd /TP /analyze-   C:\USERS\CALUM\DOCUMENTS\VISUAL STUDIO 2015\PROJECTS\DX11\DXUT\CORE\DDSTEXTURELOADER.CPP
^C:\USERS\CALUM\DOCUMENTS\VISUAL STUDIO 2015\PROJECTS\DX11\DXUT\CORE\SCREENGRAB.CPP
/c /ZI /nologo /W4 /WX- /Od /Oi /Oy- /D WIN32 /D _DEBUG /D DEBUG /D PROFILE /D _WINDOWS /D _LIB /D USE_DIRECT3D11_2 /D _WIN32_WINNT=0x0600 /D _CRT_STDIO_ARBITRARY_WIDE_SPECIFIERS /D _UNICODE /D UNICODE /Gm- /EHsc /RTC1 /MDd /GS /arch:SSE2 /fp:fast /Zc:wchar_t /Zc:forScope /Zc:inline /openmp- /Yu"DXUT.h" /Fp"BIN\DESKTOP_2015\WIN32\DEBUG\DXUT.PCH" /Fo"BIN\DESKTOP_2015\WIN32\DEBUG\\" /Fd"BIN\DESKTOP_2015\WIN32\DEBUG\DXUT.PDB" /Gd /TP /analyze-   C:\USERS\CALUM\DOCUMENTS\VISUAL STUDIO 2015\PROJECTS\DX11\DXUT\CORE\SCREENGRAB.CPP
^C:\USERS\CALUM\DOCUMENTS\VISUAL STUDIO 2015\PROJECTS\DX11\DXUT\CORE\WICTEXTURELOADER.CPP
/c /ZI /nologo /W4 /WX- /Od /Oi /Oy- /D WIN32 /D _DEBUG /D DEBUG /D PROFILE /D _WINDOWS /D _LIB /D USE_DIRECT3D11_2 /D _WIN32_WINNT=0x0600 /D _CRT_STDIO_ARBITRARY_WIDE_SPECIFIERS /D _UNICODE /D UNICODE /Gm- /EHsc /RTC1 /MDd /GS /arch:SSE2 /fp:fast /Zc:wchar_t /Zc:forScope /Zc:inline /openmp- /Yu"DXUT.h" /Fp"BIN\DESKTOP_2015\WIN32\DEBUG\DXUT.PCH" /Fo"BIN\DESKTOP_2015\WIN32\DEBUG\\" /Fd"BIN\DESKTOP_2015\WIN32\DEBUG\DXUT.PDB" /Gd /TP /analyze-   C:\USERS\CALUM\DOCUMENTS\VISUAL STUDIO 2015\PROJECTS\DX11\DXUT\CORE\WICTEXTURELOADER.CPP
